^D:\USERS\TREVOR\WORK_LOCAL\VERYVANILLA\MQ2RADAR\INTERMEDIATEMQ2RADAR\MQ2RADAR.OBJ|D:\USERS\TREVOR\WORK_LOCAL\VERYVANILLA\MQ2RADAR\INTERMEDIATEMQ2RADAR\MQ2RADAR.RES
D:\USERS\TREVOR\WORK_LOCAL\VERYVANILLA\RELEASE\MQ2RADAR.DLL
D:\USERS\TREVOR\WORK_LOCAL\VERYVANILLA\RELEASE\MQ2RADAR.PDB
